{
	"configurations" : 
	[
		{
			"directories" : 
			[
				{
					"build" : ".",
					"minimumCMakeVersion" : 
					{
						"string" : "3.10"
					},
					"projectIndex" : 0,
					"source" : ".",
					"targetIndexes" : 
					[
						0
					]
				}
			],
			"name" : "Debug",
			"projects" : 
			[
				{
					"directoryIndexes" : 
					[
						0
					],
					"name" : "geometryFactory",
					"targetIndexes" : 
					[
						0
					]
				}
			],
			"targets" : 
			[
				{
					"directoryIndex" : 0,
					"id" : "geometryFactory::@6890427a1f51a3e7e1df",
					"jsonFile" : "target-geometryFactory-Debug-04e3585fce6f1dd9b17a.json",
					"name" : "geometryFactory",
					"projectIndex" : 0
				}
			]
		}
	],
	"kind" : "codemodel",
	"paths" : 
	{
		"build" : "C:/Users/lucia/OneDrive/Desktop/exercises/7_Maintenance/Exercise_2/build-C++-Desktop_x86_windows_msvc2017_pe_64bit-Debug",
		"source" : "C:/Users/lucia/OneDrive/Desktop/exercises/7_Maintenance/Exercise_2/C++"
	},
	"version" : 
	{
		"major" : 2,
		"minor" : 0
	}
}
